Portfolio 3
…
#clean the rows
table(IE_CArray_DD1$Subject) 

## 
##     IE1    IE10    IE11    IE12     IE2     IE3     IE4     IE5     IE6     IE7 
##     644     643     715     595     535     954     622     972     766     764 
##     IE8     IE9 Subject 
##     539     850      11

#11 rows that is the header, need to filter them out
IE_D1 <- IE_CArray_DD1 %>%
  filter(!(Subject %in% "Subject"))
as_tibble(IE_D1)

## # A tibble: 8,599 × 5
##    Subject Experiment Drug  Box   Carray
##    <chr>   <chr>      <chr> <chr> <chr> 
##  1 IE1     DD1        LO    1     0     
##  2 IE1     DD1        LO    1     217   
##  3 IE1     DD1        LO    1     5     
##  4 IE1     DD1        LO    1     0     
##  5 IE1     DD1        LO    1     350   
##  6 IE1     DD1        LO    1     61    
##  7 IE1     DD1        LO    1     0     
##  8 IE1     DD1        LO    1     0     
##  9 IE1     DD1        LO    1     0     
## 10 IE1     DD1        LO    1     0     
## # ℹ 8,589 more rows
…
