Portfolio 5
…
#155 rows are the header, need to filter them out
IM_Carray <- IM_Carray_all %>%
  filter(!(Subject %in% "Subject"))

#790 rows are chamber testing programs, need to filter them out
IM_Carray <- IM_Carray %>%
  filter(Subject != 0)

as_tibble(IM_Carray)

## # A tibble: 58,618 × 6
##    Subject Experiment   Drug  Box   Carray Day  
##    <chr>   <chr>        <chr> <chr> <chr>  <chr>
##  1 IL1     PR2_EBC_TASK 0     1     0      DD1  
##  2 IL1     PR2_EBC_TASK 0     1     256    DD1  
##  3 IL1     PR2_EBC_TASK 0     1     2      DD1  
##  4 IL1     PR2_EBC_TASK 0     1     0      DD1  
##  5 IL1     PR2_EBC_TASK 0     1     69     DD1  
##  6 IL1     PR2_EBC_TASK 0     1     16     DD1  
##  7 IL1     PR2_EBC_TASK 0     1     0      DD1  
##  8 IL1     PR2_EBC_TASK 0     1     0      DD1  
##  9 IL1     PR2_EBC_TASK 0     1     0      DD1  
## 10 IL1     PR2_EBC_TASK 0     1     0      DD1  
## # ℹ 58,608 more rows
…
